Indicativo Militar,Nome,Denominação Histórica,Distintivo,Bandeira-Insignia,CODOM,CODUG,Vinculação (UG),Subordinação Direta,Guarnição,Tipo da Guarnição,Tipo da Localidade,Cmdo Mil A,Cmdo Log,Logradouro,Número,Bairro,CEP,Cidade,UF,E-Mail (Principal),Aniversário,Canção (Portaria),Canção (Canção),Canção (Letra),Distintivo (Portaria),Ativação (Portaria)
2º B Sup,2º Batalhão de Suprimentos,,,,,,,2ª RM,Barueri/SP,Comum,,CMSE,2ª RM,,,,,,,,,,,,,
AHEx,Arquivo Histórico do Exército,Real Archivo Militar,,,000513,160931,,DPHCEx,Rio de Janeiro/RJ,Comum,,,,,,,,,,,,,,,,
12ª Cia E Cmb L,12ª Companhia de Engenharia de Combate Leve,,,,,,,12ª Bda Inf L (Amv),Pindamonhangaba/SP,Comum,,CMSE,2ª RM,,,,,Pindamonhangaba,São Paulo,,1/1/1998,,,,,
8º BPE,8º Batalhão de Polícia do Exército,,,,012922,160933,,CMSE,São Paulo/SP,Comum,,CMSE,2ª RM,Rua Manuel da Nóbrega,1015,Paraíso,04001-003,São Paulo,São Paulo,,1/1/2008,,,,,
10º B Log,10º Batalhão Logístico,,,,,,,2ª Bda C Mec,Alegrete/RS,Especial,Bravo,CMS,,Rua General Vitorino,S/Nr,Restinga Seca,97542-311,Alegrete,Rio Grande do Sul,,,,,,,
11ª RM,Comando da 11ª Região Militar,Região Tenente-Coronel Luiz Cruls,,,,,,,Brasília/DF,Comum,,CMP,11ª RM,Quartel-General do CMP / 11ª RM - Avenida do Exército,S/Nr,CMU,70630-903,Brasília,Distrito Federal,,,,,,,
P M B,Prefeitura Militar de Brasília,,,,,,,,Brasília/DF,Comum,,CMP,11ª RM,Quartel-General do CMP / 11ª RM - Avenida do Exército,S/Nr,CMU,70630-903,Brasília,Distrito Federal,comsoc@pmb.eb.mil.br,,,,,,
AC-Defesa,Autoridade Certificadora de Defesa,,,,,,,,Brasília/DF,Comum,,CMP,,,,,,,,,29/9/2017,,,,,
10º CGCFEx,"10º Centro de Gestão, Contabilidade e Finanças do Exército",,,,,,,,,,,,,,,,,,,,,,,,,
10ª Cia E Cmb,10ª Companhia de Engenharia de Combate,Companhia General Abreu e Lima,,,034652,160023,,10º Bda Inf Mtz,,,,CMNE,7ª RM,Rodovia PE 180,S/Nr,Km 5,55155-970,São Bento do Una,Pernambuco,comsoc@10ciaecmb.eb.mil.br,16/10/1986,,,,,
CPOR/SP,Centro de Preparação de Oficiais da Reserva de São Paulo,Centro Solar dos Andradas,,,,,,,,,,,,,,,,,,,,,,,,
CMSP,Colégio Militar de São Paulo,,,,,,,,São Paulo/SP,Comum,,CMSE,2ª RM,,,,,,,,,,,,,"PORTARIA – C Ex Nº 2.373, DE 11 DE NOVEMBRO DE 2024"
10º D Sup,10º Depósito de Suprimentos,Depósito Forte Sebastião,,,,,,,,,,,,,,,,,,,,"PORTARIA – DECEx/C Ex Nº 593, DE 17 DE JULHO DE 2024",1º Sgt Mus Edson Luís Carvalho Porto,2º Sgt MB Cristiano da Silva Jaques,,
12º B Sup,12º Batalhão de Suprimento,,,,,,,,,,,,,,,,,,,,,,,,,
13º BIB,13º Batalhão de Infantaria Blindado,Batalhão Marechal Tristão Alencar de Araripe,,,,,,,,,,,,,,,,,,,,,,,,
13º Pel Com,13º Pelotão de Comunicações,,,,065383,,,,,,,,,,,,,,,,,,,,,
14º GAC,14º Grupo de Artilharia de Campanha,,,,056200,,,,,,,CML,4ª RM,Avenida Marechal Castelo Branco,635,Santa Filomena,37550-225,Pouso Alegre,Minas Gerais,,,,,,,
15ª Cia E Cmb Mec,15ª Companhia de Engenharia de Combate,,,,,,,15º Bda Inf Mec,Palmas,Comum,Bravo,CMS,5ª RM,Rua Expedicionário Palmense,771,Centro,85555-000,Palmas,Paraná,,,,,,,
1º BFv,1º Batalhão Ferroviário,Batalhão Benjamin Constant,,,,,,,,,,,,Rua Marechal Cândido Rondon,200,Conta Dinheiro,88520-900,Lages,Santa Catarina,,,,,,,
1º BIS,1º Batalhão de Infantaria de Selva,,,,,,,,Manaus/AM,,,CMA,12ª RM,,,,,,,,,,,,,
23º B Log Sl,23º Batalhão Logístico de Selva,,,,012351,,Cmdo 23ª Bda Inf Sl,,,,,,,,,,,,,,,,,,,
24º BIS,24º Batalhão de Infantaria de Selva,Batalhão Barão de Caxias,,,,,,,,,,,,,,,,,,,,,,,,
2ª Cia Fron,2ª Companhia de Fronteira,Soldado Simeão Fernandes,,,035303,,,,,,,CMO,,,,,,,,,,,,,,
2ª Cia Trnp,2ª Companhia de Transporte,Companhia Sargento Rubens Leite,,,,,,,,,,,,,,,,,,,,,,,,
2ª DE,2ª Divisão de Exército,,,,,,,,,,,,,,,,,,,,,,,,,
3ª DE,Comando da 3ª Divisão de Exército,Divisão Encouraçada,,,,,,CMS,Santa Maria,Comum,,CMS,3ª RM,Rua Doutor Bozzano,15,Bonfim,97015-001,Santa Maria,Rio Grande do Sul,,,,,,,
40º BI,40º Batalhão de Infantaria,,,,,,,,,,,CMNE,,,,,,,,,,,,,,
47º BI,47º Batalhão de Infantaria,,,,006163,,,,,,,,,,,,,,,,,,,,,
4ª Bda Inf L Mth,Comando da 4ª Brigada de Infantaria Leve de Montanha,,,,024778,,,1ª DE,Juiz de Fora/MG,Comum,,CML,4ª RM,Rua Mariano Procópio,970,,36035-780,Juiz de Fora,Minas Gerais,,,,,,,
4º B Com GE,4º Batalhão de Comunicações e Guerra Eletrônica,Batalhão Arraial Novo do Bom Jesus,,,002238,,,,Recife,Comum,,CMNE,7ª RM,Avenida Doutor José Rufino,3131,Tejipió,50780-300,Recife,Pernambuco,,,,,,,
4º BE Cmb,4º Batalhão de Engenharia de Combate,,,,,,,5º Gpt E,,,,CML,4ª RM,,,,,Itajubá,Minas Gerais,,,,,,,
4º D Sup,4º Depósito de Suprimento,Depósito General José Jacintho Camerino,,,,,,,,,,,,,,,,,,,,,,,,
55º BI,55º Batalhão de Infantaria,,,,006213,,,,,,,CML,4ª RM,,,,,,,,,,,,,
6ª Cia E Cmb Sl,6ª Companhia de Engenharia de Combate de Selva,,,,034926,,,Cmdo 23ª Bda Inf Sl,,,,,,,,,,,,,,,,,,
6º BIM,6º Batalhão de Inteligência Militar ,,,,007369,,,,,,,,,,,,,,,,,,,,,
7º BEC,7º Batalhão de Engenharia de Construção,,,,003913,,,2º Gpt E,,,,CMA,12ª RM,Avenida Nações Unidas,2100,,69918-093,Boa Vista,Acre,,,,,,,
AMAN,Academia Militar das Agulhas Negras,,,,,,,,,,,,,,,,,,,,,,,,,
B Adm Curado,Base Administrativa do Curado,Base Mestre-de-Campo Antônio Curado Vidal,,,,,,,,,,,,,,,,,,,,,,,,
B Adm/ C O Esp,Base Administrativa do Comando de Operações Especiais,,,,,,,,,,,,,,,,,,,,,,,,,
B Adm/CCOMGEx,Base Administrativa do Comando de Comunicações e Guerra Eletrônica do Exército,,,,001248,160528,,,,,,,,,,,,,,,,,,,,
BCSv/ESA,Batalhão de Comando e Serviços da Escola de Sargentos das Armas,,,,012583,160742,ESA,ESA,Três Corações/MG,Comum,,CML,4ª RM,Avenida Sete de Setembro,628,Centro,37410-155,Três Corações,Minas Gerais,,,,,,,
BIBLIEx,Biblioteca do Exército,,,,,,,,,,,,,,,,,,,,,,,,,
C Com G Ex,Comando de Comunicações e Guerra Eletrônica do Exército,,,,,,B Adm/CCOMGEx,,,,,,,,,,,,,,,,,,"PORTARIA – DECEx/C Ex Nº 609, DE 6 DE SETEMBRO DE 2024",
C D Ciber,Centro de Defesa Cibernética,,,,016444,,B Adm/CCOMGEx,,,,,,,,,,,,,,,,,,,
CECMA,Centro de Embarcações do Comando Militar da Amazônia,,,,,,,,,,,,,,,,,,,,,,,,,
CI Art Msl Fgt,Centro de Instrução de Artilharia de Mísseis e Foguetes,,,,,,,,,,,,,,,,,,,,,,,,,
CIdEx,Centro de Idiomas do Exército,Centro General Jardim,,,,,,,,,,,,,,,,,,,,,,,,
CMB,Colégio Militar de Brasília,,,,,,,,,,,,,,,,,,,,,,,,,
Cmdo 23ª Bda Inf Sl,Comando da 23ª Brigada de Infantaria de Selva,,,,034926,,Cmdo 23ª Bda Inf Sl,,,,,,,,,,,,,,,,,,,
Cmdo 4ª RM,Comando da 4ª Região Militar,,,,,,,CML,,,,CML,4ª RM,Avenida Raja Gabaglia,450,Gutierrez,30441-070,Belo Horizonte,Minas Gerais,,,,,,,
CML,Comando Militar do Leste,,,,,,,,,,,,,,,,,,,,,,,,,
CMNE,Comando Militar do Nordeste,,,,,,,,,,,,,,,,,,,,,,,,,
CMO,Comando Militar do Oeste,,,,023580,,,,,,,,,Avenida Duque de Caxias,1628,Amambai,79100-900,Campo Grande,Mato Grosso do Sul,,,,,,,
DAPROM,Diretoria de Avaliações e Promoções,,,,,,,,,,,,,,,,,,,,,,,,,
DCEM,Diretoria de Controle de Efetivos e Movimentações,,,,,,,DGP,,,,,,,,,,,,,,,,,,
DEC,Departamento de Engenharia e Construção,,,,,,,,,,,,,,,,,,,,,,,,,
DGP,Departamento-Geral do Pessoal,Departamento Barão de Suruhi,,,040105,160070,,,Brasília/DF,Comum,,CMP,11ª RM,,,,,,,,,,,,,
DSG,Diretoria de Serviço Geográfico,,,,,,,,,,,,,,,,,,,,,,,,,
E Na D Ciber,Escola Nacional de Defesa Cibernética,,,,016459,,B Adm/CCOMGEx,,,,,,,,,,,,,,,,,,,
EB,Exército Brasileiro,,,,,,,,,,,,,,,,,,,,,,,,,
EMFA,Estado-Maior Conjunto das Forças Armadas,,,,,,,,,,,,,,,,,,,,,,,,,
ESA,Escola de Sargentos das Armas,Escola Sargento Max Wolff Filho,,,049502,160468,,DETMil,Três Corações/MG,Comum,,CML,4ª RM,Avenida Sete de Setembro,628,Centro,37410-155,Três Corações,Minas Gerais,,,,,,,
EsACosAAe,Escola de Artilharia de Costa e Antiaérea,,,,,,,,,,,,,,,,,,,,,,,,,
EsPCEx,Escola Preparatória de Cadetes do Exército,,,,049403,,,DESMil,,,,CMSE,2ª RM,,,,,Campinas,São Paulo,,,,,,,
EsSLog,Escola de Sargentos de Logística,,,,,,,,,,,,,,,,,,,,,,,,,
Pq R Mnt/12,Parque Regional de Manutenção da 12ª RM,Parque de Manutenção Mello e Póvoas,,,065094,160021,,12ª RM,Manaus/AM,,,CMA,12ª RM,,,,,Manaus,Amazonas,,6/12/1978,,,,,
Pq R Mnt/5,Parque Regional de Manutenção da 5ª RM,,,,,,,,,,,,,,,,,,,,,,,,,
SEF,Secretaria de Economia e Finanças,,,,,,,,,,,,,,,,,,,,,,,,,
CIB,Campo de Instrução de Butiá,,,,,,,,,,,,,,,,,,,,,,,,,
CIBSB,Campo de Instrução Barão de São Borja,,,,,,,,,,,,,,,,,,,,,,,,,